data/exp8/TEK0004.CSV

Record Length,2.500000e+03,,  -6.020000000000,   0.12000,
Sample Interval,4.000000e-03,,  -6.016000000000,   0.11200,
Trigger Point,1.505000000000e+03,,  -6.012000000000,   0.11200,
,,,  -6.008000000000,   0.11200,
,,,  -6.004000000000,   0.11200,
,,,  -6.000000000000,   0.11200,
Source,CH2,,  -5.996000000000,   0.11200,
Vertical Units,V,,  -5.992000000000,   0.11200,
Vertical Scale,2.000000e-01,,  -5.988000000000,   0.12000,
Vertical Offset,-7.920000e-01,,  -5.984000000000,   0.11200,
Horizontal Units,s,,  -5.980000000000,   0.12000,
Horizontal Scale,1.000000e+00,,  -5.976000000000,   0.11200,
Pt Fmt,Y,,  -5.972000000000,   0.11200,
Yzero,0.000000e+00,,  -5.968000000000,   0.10400,
Probe Atten,1.000000e+00,,  -5.964000000000,   0.11200,
Model Number,TDS2012C,,  -5.960000000000,   0.11200,
Serial Number,C012957,,  -5.956000000000,   0.11200,
Firmware Version,FV:v24.09,,  -5.952000000000,   0.11200,
,,,-05.948000000000,   0.10400,
,,,-05.944000000000,   0.11200,
,,,-05.940000000000,   0.10400,
,,,-05.936000000000,   0.11200,
,,,-05.932000000000,   0.10400,
,,,-05.928000000000,   0.11200,
,,,-05.924000000000,   0.11200,
,,,-05.920000000000,   0.11200,
,,,-05.916000000000,   0.10400,
,,,-05.912000000000,   0.11200,
,,,-05.908000000000,   0.11200,
,,,-05.904000000000,   0.10400,
,,,-05.900000000000,   0.10400,
,,,-05.896000000000,   0.10400,
,,,-05.892000000000,   0.10400,
,,,-05.888000000000,   0.11200,
,,,-05.884000000000,   0.10400,
,,,-05.880000000000,   0.10400,
,,,-05.876000000000,   0.10400,
,,,-05.872000000000,   0.10400,
,,,-05.868000000000,   0.10400,
,,,-05.864000000000,   0.10400,
,,,-05.860000000000,   0.10400,
,,,-05.856000000000,   0.10400,
,,,-05.852000000000,   0.10400,
,,,-05.848000000000,   0.10400,
,,,-05.844000000000,   0.10400,
,,,-05.840000000000,   0.10400,
,,,-05.836000000000,   0.10400,
,,,-05.832000000000,   0.10400,
,,,-05.828000000000,   0.10400,
,,,-05.824000000000,   0.10400,
,,,-05.820000000000,   0.10400,
,,,-05.816000000000,   0.10400,
,,,-05.812000000000,   0.09600,
,,,-05.808000000000,   0.10400,
,,,-05.804000000000,   0.09600,
,,,-05.800000000000,   0.10400,
,,,-05.796000000000,   0.10400,
,,,-05.792000000000,   0.10400,
,,,-05.788000000000,   0.09600,
,,,-05.784000000000,   0.09600,
,,,-05.780000000000,   0.10400,
,,,-05.776000000000,   0.09600,
,,,-05.772000000000,   0.10400,
,,,-05.768000000000,   0.09600,
,,,-05.764000000000,   0.09600,
,,,-05.760000000000,   0.09600,
,,,-05.756000000000,   0.09600,
,,,-05.752000000000,   0.09600,
,,,-05.748000000000,   0.09600,
,,,-05.744000000000,   0.10400,
,,,-05.740000000000,   0.09600,
,,,-05.736000000000,   0.09600,
,,,-05.732000000000,   0.09600,
,,,-05.728000000000,   0.09600,
,,,-05.724000000000,   0.09600,
,,,-05.720000000000,   0.09600,
,,,-05.716000000000,   0.09600,
,,,-05.712000000000,   0.09600,
,,,-05.708000000000,   0.09600,
,,,-05.704000000000,   0.09600,
,,,-05.700000000000,   0.09600,
,,,-05.696000000000,   0.09600,
,,,-05.692000000000,   0.08800,
,,,-05.688000000000,   0.09600,
,,,-05.684000000000,   0.09600,
,,,-05.680000000000,   0.09600,
,,,-05.676000000000,   0.09600,
,,,-05.672000000000,   0.09600,
,,,-05.668000000000,   0.09600,
,,,-05.664000000000,   0.09600,
,,,-05.660000000000,   0.08800,
,,,-05.656000000000,   0.08800,
,,,-05.652000000000,   0.09600,
,,,-05.648000000000,   0.08800,
,,,-05.644000000000,   0.09600,
,,,-05.640000000000,   0.08800,
,,,-05.636000000000,   0.08800,
,,,-05.632000000000,   0.08800,
,,,-05.628000000000,   0.08800,
,,,-05.624000000000,   0.09600,
,,,-05.620000000000,   0.08800,
,,,-05.616000000000,   0.08800,
,,,-05.612000000000,   0.08800,
,,,-05.608000000000,   0.08800,
,,,-05.604000000000,   0.08800,
,,,-05.600000000000,   0.09600,
,,,-05.596000000000,   0.08800,
,,,-05.592000000000,   0.08800,
,,,-05.588000000000,   0.08800,
,,,-05.584000000000,   0.08800,
,,,-05.580000000000,   0.08800,
,,,-05.576000000000,   0.08800,
,,,-05.572000000000,   0.08800,
,,,-05.568000000000,   0.08800,
,,,-05.564000000000,   0.08800,
,,,-05.560000000000,   0.08800,
,,,-05.556000000000,   0.08800,
,,,-05.552000000000,   0.08800,
,,,-05.548000000000,   0.08800,
,,,-05.544000000000,   0.08800,
,,,-05.540000000000,   0.08800,
,,,-05.536000000000,   0.08800,
,,,-05.532000000000,   0.08800,
,,,-05.528000000000,   0.08800,
,,,-05.524000000000,   0.08800,
,,,-05.520000000000,   0.08800,
,,,-05.516000000000,   0.08800,
,,,-05.512000000000,   0.08800,
,,,-05.508000000000,   0.08800,
,,,-05.504000000000,   0.08800,
,,,-05.500000000000,   0.08800,
,,,-05.496000000000,   0.08800,
,,,-05.492000000000,   0.08800,
,,,-05.488000000000,   0.08800,
,,,-05.484000000000,   0.08800,
,,,-05.480000000000,   0.08800,
,,,-05.476000000000,   0.08800,
,,,-05.472000000000,   0.08800,
,,,-05.468000000000,   0.08800,
,,,-05.464000000000,   0.08800,
,,,-05.460000000000,   0.08800,
,,,-05.456000000000,   0.08800,
,,,-05.452000000000,   0.08000,
,,,-05.448000000000,   0.08800,
,,,-05.444000000000,   0.08000,
,,,-05.440000000000,   0.08000,
,,,-05.436000000000,   0.08000,
,,,-05.432000000000,   0.08800,
,,,-05.428000000000,   0.08000,
,,,-05.424000000000,   0.08000,
,,,-05.420000000000,   0.08000,
,,,-05.416000000000,   0.08000,
,,,-05.412000000000,   0.08000,
,,,-05.408000000000,   0.08000,
,,,-05.404000000000,   0.08800,
,,,-05.400000000000,   0.08000,
,,,-05.396000000000,   0.08000,
,,,-05.392000000000,   0.08000,
,,,-05.388000000000,   0.08000,
,,,-05.384000000000,   0.08000,
,,,-05.380000000000,   0.08800,
,,,-05.376000000000,   0.08000,
,,,-05.372000000000,   0.08000,
,,,-05.368000000000,   0.08000,
,,,-05.364000000000,   0.08000,
,,,-05.360000000000,   0.08000,
,,,-05.356000000000,   0.08000,
,,,-05.352000000000,   0.08000,
,,,-05.348000000000,   0.08000,
,,,-05.344000000000,   0.08000,
,,,-05.340000000000,   0.08000,
,,,-05.336000000000,   0.08000,
,,,-05.332000000000,   0.08000,
,,,-05.328000000000,   0.08000,
,,,-05.324000000000,   0.08000,
,,,-05.320000000000,   0.08000,
,,,-05.316000000000,   0.08000,
,,,-05.312000000000,   0.08000,
,,,-05.308000000000,   0.07200,
,,,-05.304000000000,   0.07200,
,,,-05.300000000000,   0.08000,
,,,-05.296000000000,   0.08000,
,,,-05.292000000000,   0.08000,
,,,-05.288000000000,   0.08000,
,,,-05.284000000000,   0.08000,
,,,-05.280000000000,   0.07200,
,,,-05.276000000000,   0.08000,
,,,-05.272000000000,   0.08000,
,,,-05.268000000000,   0.08000,
,,,-05.264000000000,   0.08000,
,,,-05.260000000000,   0.08000,
,,,-05.256000000000,   0.07200,
,,,-05.252000000000,   0.08000,
,,,-05.248000000000,   0.07200,
,,,-05.244000000000,   0.08000,
,,,-05.240000000000,   0.07200,
,,,-05.236000000000,   0.07200,
,,,-05.232000000000,   0.08000,
,,,-05.228000000000,   0.07200,
,,,-05.224000000000,   0.08000,
,,,-05.220000000000,   0.07200,
,,,-05.216000000000,   0.08000,
,,,-05.212000000000,   0.07200,
,,,-05.208000000000,   0.08000,
,,,-05.204000000000,   0.08000,
,,,-05.200000000000,   0.08000,
,,,-05.196000000000,   0.08000,
,,,-05.192000000000,   0.08000,
,,,-05.188000000000,   0.07200,
,,,-05.184000000000,   0.07200,
,,,-05.180000000000,   0.08000,
,,,-05.176000000000,   0.07200,
,,,-05.172000000000,   0.07200,
,,,-05.168000000000,   0.07200,
,,,-05.164000000000,   0.07200,
,,,-05.160000000000,   0.07200,
,,,-05.156000000000,   0.07200,
,,,-05.152000000000,   0.07200,
,,,-05.148000000000,   0.07200,
,,,-05.144000000000,   0.07200,
,,,-05.140000000000,   0.07200,
,,,-05.136000000000,   0.07200,
,,,-05.132000000000,   0.06400,
,,,-05.128000000000,   0.07200,
,,,-05.124000000000,   0.07200,
,,,-05.120000000000,   0.07200,
,,,-05.116000000000,   0.07200,
,,,-05.112000000000,   0.07200,
,,,-05.108000000000,   0.07200,
,,,-05.104000000000,   0.07200,
,,,-05.100000000000,   0.06400,
,,,-05.096000000000,   0.07200,
,,,-05.092000000000,   0.07200,
,,,-05.088000000000,   0.06400,
,,,-05.084000000000,   0.07200,
,,,-05.080000000000,   0.07200,
,,,-05.076000000000,   0.06400,
,,,-05.072000000000,   0.06400,
,,,-05.068000000000,   0.07200,
,,,-05.064000000000,   0.06400,
,,,-05.060000000000,   0.07200,
,,,-05.056000000000,   0.07200,
,,,-05.052000000000,   0.07200,
,,,-05.048000000000,   0.07200,
,,,-05.044000000000,   0.06400,
,,,-05.040000000000,   0.06400,
,,,-05.036000000000,   0.07200,
,,,-05.032000000000,   0.06400,
,,,-05.028000000000,   0.07200,
,,,-05.024000000000,   0.06400,
,,,-05.020000000000,   0.07200,
,,,-05.016000000000,   0.07200,
,,,-05.012000000000,   0.06400,
,,,-05.008000000000,   0.06400,
,,,-05.004000000000,   0.06400,
,,,-05.000000000000,   0.06400,
,,,-04.996000000000,   0.07200,
,,,-04.992000000000,   0.06400,
,,,-04.988000000000,   0.07200,
,,,-04.984000000000,   0.06400,
,,,-04.980000000000,   0.06400,
,,,-04.976000000000,   0.06400,
,,,-04.972000000000,   0.06400,
,,,-04.968000000000,   0.06400,
,,,-04.964000000000,   0.06400,
,,,-04.960000000000,   0.06400,
,,,-04.956000000000,   0.06400,
,,,-04.952000000000,   0.06400,
,,,-04.948000000000,   0.06400,
,,,-04.944000000000,   0.06400,
,,,-04.940000000000,   0.06400,
,,,-04.936000000000,   0.06400,
,,,-04.932000000000,   0.06400,
,,,-04.928000000000,   0.06400,
,,,-04.924000000000,   0.06400,
,,,-04.920000000000,   0.06400,
,,,-04.916000000000,   0.06400,
,,,-04.912000000000,   0.06400,
,,,-04.908000000000,   0.05600,
,,,-04.904000000000,   0.06400,
,,,-04.900000000000,   0.06400,
,,,-04.896000000000,   0.06400,
,,,-04.892000000000,   0.06400,
,,,-04.888000000000,   0.06400,
,,,-04.884000000000,   0.05600,
,,,-04.880000000000,   0.06400,
,,,-04.876000000000,   0.06400,
,,,-04.872000000000,   0.05600,
,,,-04.868000000000,   0.06400,
,,,-04.864000000000,   0.05600,
,,,-04.860000000000,   0.06400,
,,,-04.856000000000,   0.05600,
,,,-04.852000000000,   0.05600,
,,,-04.848000000000,   0.06400,
,,,-04.844000000000,   0.06400,
,,,-04.840000000000,   0.06400,
,,,-04.836000000000,   0.06400,
,,,-04.832000000000,   0.06400,
,,,-04.828000000000,   0.06400,
,,,-04.824000000000,   0.05600,
,,,-04.820000000000,   0.05600,
,,,-04.816000000000,   0.06400,
,,,-04.812000000000,   0.06400,
,,,-04.808000000000,   0.06400,
,,,-04.804000000000,   0.06400,
,,,-04.800000000000,   0.05600,
,,,-04.796000000000,   0.06400,
,,,-04.792000000000,   0.05600,
,,,-04.788000000000,   0.06400,
,,,-04.784000000000,   0.05600,
,,,-04.780000000000,   0.05600,
,,,-04.776000000000,   0.05600,
,,,-04.772000000000,   0.05600,
,,,-04.768000000000,   0.05600,
,,,-04.764000000000,   0.05600,
,,,-04.760000000000,   0.05600,
,,,-04.756000000000,   0.06400,
,,,-04.752000000000,   0.05600,
,,,-04.748000000000,   0.05600,
,,,-04.744000000000,   0.06400,
,,,-04.740000000000,   0.05600,
,,,-04.736000000000,   0.05600,
,,,-04.732000000000,   0.06400,
,,,-04.728000000000,   0.05600,
,,,-04.724000000000,   0.05600,
,,,-04.720000000000,   0.05600,
,,,-04.716000000000,   0.05600,
,,,-04.712000000000,   0.05600,
,,,-04.708000000000,   0.05600,
,,,-04.704000000000,   0.05600,
,,,-04.700000000000,   0.05600,
,,,-04.696000000000,   0.05600,
,,,-04.692000000000,   0.05600,
,,,-04.688000000000,   0.05600,
,,,-04.684000000000,   0.05600,
,,,-04.680000000000,   0.05600,
,,,-04.676000000000,   0.05600,
,,,-04.672000000000,   0.05600,
,,,-04.668000000000,   0.05600,
,,,-04.664000000000,   0.05600,
,,,-04.660000000000,   0.05600,
,,,-04.656000000000,   0.05600,
,,,-04.652000000000,   0.05600,
,,,-04.648000000000,   0.05600,
,,,-04.644000000000,   0.05600,
,,,-04.640000000000,   0.05600,
,,,-04.636000000000,   0.05600,
,,,-04.632000000000,   0.05600,
,,,-04.628000000000,   0.05600,
,,,-04.624000000000,   0.05600,
,,,-04.620000000000,   0.05600,
,,,-04.616000000000,   0.05600,
,,,-04.612000000000,   0.05600,
,,,-04.608000000000,   0.05600,
,,,-04.604000000000,   0.05600,
,,,-04.600000000000,   0.05600,
,,,-04.596000000000,   0.05600,
,,,-04.592000000000,   0.05600,
,,,-04.588000000000,   0.05600,
,,,-04.584000000000,   0.05600,
,,,-04.580000000000,   0.04800,
,,,-04.576000000000,   0.05600,
,,,-04.572000000000,   0.05600,
,,,-04.568000000000,   0.05600,
,,,-04.564000000000,   0.05600,
,,,-04.560000000000,   0.04800,
,,,-04.556000000000,   0.05600,
,,,-04.552000000000,   0.05600,
,,,-04.548000000000,   0.05600,
,,,-04.544000000000,   0.05600,
,,,-04.540000000000,   0.05600,
,,,-04.536000000000,   0.05600,
,,,-04.532000000000,   0.05600,
,,,-04.528000000000,   0.05600,
,,,-04.524000000000,   0.05600,
,,,-04.520000000000,   0.05600,
,,,-04.516000000000,   0.05600,
,,,-04.512000000000,   0.04800,
,,,-04.508000000000,   0.05600,
,,,-04.504000000000,   0.04800,
,,,-04.500000000000,   0.05600,
,,,-04.496000000000,   0.05600,
,,,-04.492000000000,   0.04800,
,,,-04.488000000000,   0.05600,
,,,-04.484000000000,   0.05600,
,,,-04.480000000000,   0.05600,
,,,-04.476000000000,   0.05600,
,,,-04.472000000000,   0.04800,
,,,-04.468000000000,   0.05600,
,,,-04.464000000000,   0.05600,
,,,-04.460000000000,   0.05600,
,,,-04.456000000000,   0.04800,
,,,-04.452000000000,   0.04800,
,,,-04.448000000000,   0.05600,
,,,-04.444000000000,   0.04800,
,,,-04.440000000000,   0.05600,
,,,-04.436000000000,   0.04800,
,,,-04.432000000000,   0.05600,
,,,-04.428000000000,   0.04800,
,,,-04.424000000000,   0.04800,
,,,-04.420000000000,   0.04800,
,,,-04.416000000000,   0.04800,
,,,-04.412000000000,   0.04800,
,,,-04.408000000000,   0.05600,
,,,-04.404000000000,   0.04800,
,,,-04.400000000000,   0.05600,
,,,-04.396000000000,   0.05600,
,,,-04.392000000000,   0.04800,
,,,-04.388000000000,   0.04800,
,,,-04.384000000000,   0.05600,
,,,-04.380000000000,   0.05600,
,,,-04.376000000000,   0.04800,
,,,-04.372000000000,   0.04800,
,,,-04.368000000000,   0.04800,
,,,-04.364000000000,   0.04800,
,,,-04.360000000000,   0.04800,
,,,-04.356000000000,   0.04800,
,,,-04.352000000000,   0.04800,
,,,-04.348000000000,   0.04800,
,,,-04.344000000000,   0.04800,
,,,-04.340000000000,   0.04800,
,,,-04.336000000000,   0.04800,
,,,-04.332000000000,   0.05600,
,,,-04.328000000000,   0.04800,
,,,-04.324000000000,   0.04800,
,,,-04.320000000000,   0.04800,
,,,-04.316000000000,   0.04800,
,,,-04.312000000000,   0.04000,
,,,-04.308000000000,   0.04800,
,,,-04.304000000000,   0.04800,
,,,-04.300000000000,   0.04800,
,,,-04.296000000000,   0.04800,
,,,-04.292000000000,   0.05600,
,,,-04.288000000000,   0.04800,
,,,-04.284000000000,   0.04000,
,,,-04.280000000000,   0.04800,
,,,-04.276000000000,   0.04800,
,,,-04.272000000000,   0.04800,
,,,-04.268000000000,   0.04800,
,,,-04.264000000000,   0.04800,
,,,-04.260000000000,   0.04800,
,,,-04.256000000000,   0.04800,
,,,-04.252000000000,   0.04800,
,,,-04.248000000000,   0.04800,
,,,-04.244000000000,   0.04800,
,,,-04.240000000000,   0.04000,
,,,-04.236000000000,   0.04800,
,,,-04.232000000000,   0.04000,
,,,-04.228000000000,   0.04800,
,,,-04.224000000000,   0.04800,
,,,-04.220000000000,   0.04800,
,,,-04.216000000000,   0.04000,
,,,-04.212000000000,   0.04800,
,,,-04.208000000000,   0.04800,
,,,-04.204000000000,   0.04000,
,,,-04.200000000000,   0.04800,
,,,-04.196000000000,   0.04800,
,,,-04.192000000000,   0.04000,
,,,-04.188000000000,   0.04000,
,,,-04.184000000000,   0.04000,
,,,-04.180000000000,   0.04000,
,,,-04.176000000000,   0.04000,
,,,-04.172000000000,   0.04000,
,,,-04.168000000000,   0.04000,
,,,-04.164000000000,   0.04000,
,,,-04.160000000000,   0.04000,
,,,-04.156000000000,   0.04000,
,,,-04.152000000000,   0.04800,
,,,-04.148000000000,   0.04000,
,,,-04.144000000000,   0.04800,
,,,-04.140000000000,   0.04000,
,,,-04.136000000000,   0.04800,
,,,-04.132000000000,   0.04800,
,,,-04.128000000000,   0.04800,
,,,-04.124000000000,   0.04000,
,,,-04.120000000000,   0.04800,
,,,-04.116000000000,   0.04800,
,,,-04.112000000000,   0.04000,
,,,-04.108000000000,   0.04000,
,,,-04.104000000000,   0.04000,
,,,-04.100000000000,   0.04000,
,,,-04.096000000000,   0.04000,
,,,-04.092000000000,   0.04000,
,,,-04.088000000000,   0.04000,
,,,-04.084000000000,   0.04800,
,,,-04.080000000000,   0.04000,
,,,-04.076000000000,   0.04000,
,,,-04.072000000000,   0.04000,
,,,-04.068000000000,   0.04000,
,,,-04.064000000000,   0.04000,
,,,-04.060000000000,   0.04000,
,,,-04.056000000000,   0.04000,
,,,-04.052000000000,   0.04000,
,,,-04.048000000000,   0.04000,
,,,-04.044000000000,   0.04000,
,,,-04.040000000000,   0.04000,
,,,-04.036000000000,   0.04000,
,,,-04.032000000000,   0.04000,
,,,-04.028000000000,   0.04800,
,,,-04.024000000000,   0.04800,
,,,-04.020000000000,   0.04000,
,,,-04.016000000000,   0.04000,
,,,-04.012000000000,   0.04000,
,,,-04.008000000000,   0.04000,
,,,-04.004000000000,   0.04000,
,,,-04.000000000000,   0.04800,
,,,-03.996000000000,   0.04000,
,,,-03.992000000000,   0.04000,
,,,-03.988000000000,   0.04000,
,,,-03.984000000000,   0.04000,
,,,-03.980000000000,   0.04000,
,,,-03.976000000000,   0.04000,
,,,-03.972000000000,   0.04000,
,,,-03.968000000000,   0.04000,
,,,-03.964000000000,   0.04000,
,,,-03.960000000000,   0.04000,
,,,-03.956000000000,   0.04000,
,,,-03.952000000000,   0.04000,
,,,-03.948000000000,   0.04000,
,,,-03.944000000000,   0.04000,
,,,-03.940000000000,   0.04000,
,,,-03.936000000000,   0.04800,
,,,-03.932000000000,   0.04000,
,,,-03.928000000000,   0.04000,
,,,-03.924000000000,   0.04000,
,,,-03.920000000000,   0.04000,
,,,-03.916000000000,   0.04000,
,,,-03.912000000000,   0.04000,
,,,-03.908000000000,   0.04000,
,,,-03.904000000000,   0.04000,
,,,-03.900000000000,   0.04000,
,,,-03.896000000000,   0.04000,
,,,-03.892000000000,   0.04000,
,,,-03.888000000000,   0.04000,
,,,-03.884000000000,   0.04000,
,,,-03.880000000000,   0.04000,
,,,-03.876000000000,   0.04000,
,,,-03.872000000000,   0.04000,
,,,-03.868000000000,   0.04000,
,,,-03.864000000000,   0.03200,
,,,-03.860000000000,   0.04000,
,,,-03.856000000000,   0.04000,
,,,-03.852000000000,   0.04000,
,,,-03.848000000000,   0.04000,
,,,-03.844000000000,   0.04000,
,,,-03.840000000000,   0.04000,
,,,-03.836000000000,   0.04000,
,,,-03.832000000000,   0.04000,
,,,-03.828000000000,   0.04000,
,,,-03.824000000000,   0.04000,
,,,-03.820000000000,   0.03200,
,,,-03.816000000000,   0.04000,
,,,-03.812000000000,   0.04000,
,,,-03.808000000000,   0.03200,
,,,-03.804000000000,   0.03200,
,,,-03.800000000000,   0.04000,
,,,-03.796000000000,   0.04000,
,,,-03.792000000000,   0.03200,
,,,-03.788000000000,   0.03200,
,,,-03.784000000000,   0.03200,
,,,-03.780000000000,   0.03200,
,,,-03.776000000000,   0.04000,
,,,-03.772000000000,   0.03200,
,,,-03.768000000000,   0.03200,
,,,-03.764000000000,   0.03200,
,,,-03.760000000000,   0.04000,
,,,-03.756000000000,   0.03200,
,,,-03.752000000000,   0.04000,
,,,-03.748000000000,   0.04000,
,,,-03.744000000000,   0.04000,
,,,-03.740000000000,   0.04000,
,,,-03.736000000000,   0.04000,
,,,-03.732000000000,   0.03200,
,,,-03.728000000000,   0.03200,
,,,-03.724000000000,   0.03200,
,,,-03.720000000000,   0.04000,
,,,-03.716000000000,   0.04000,
,,,-03.712000000000,   0.03200,
,,,-03.708000000000,   0.03200,
,,,-03.704000000000,   0.03200,
,,,-03.700000000000,   0.04000,
,,,-03.696000000000,   0.04000,
,,,-03.692000000000,   0.03200,
,,,-03.688000000000,   0.04000,
,,,-03.684000000000,   0.03200,
,,,-03.680000000000,   0.03200,
,,,-03.676000000000,   0.03200,
,,,-03.672000000000,   0.03200,
,,,-03.668000000000,   0.04000,
,,,-03.664000000000,   0.03200,
,,,-03.660000000000,   0.03200,
,,,-03.656000000000,   0.03200,
,,,-03.652000000000,   0.04000,
,,,-03.648000000000,   0.03200,
,,,-03.644000000000,   0.03200,
,,,-03.640000000000,   0.03200,
,,,-03.636000000000,   0.03200,
,,,-03.632000000000,   0.04000,
,,,-03.628000000000,   0.04000,
,,,-03.624000000000,   0.03200,
,,,-03.620000000000,   0.03200,
,,,-03.616000000000,   0.03200,
,,,-03.612000000000,   0.03200,
,,,-03.608000000000,   0.04000,
,,,-03.604000000000,   0.04000,
,,,-03.600000000000,   0.03200,
,,,-03.596000000000,   0.03200,
,,,-03.592000000000,   0.04000,
,,,-03.588000000000,   0.03200,
,,,-03.584000000000,   0.03200,
,,,-03.580000000000,   0.03200,
,,,-03.576000000000,   0.03200,
,,,-03.572000000000,   0.03200,
,,,-03.568000000000,   0.03200,
