data/exp8/TEK0000.CSV

Record Length,2.500000e+03,,  -6.020000000000,   0.08000,
Sample Interval,4.000000e-03,,  -6.016000000000,   0.08000,
Trigger Point,1.505000000000e+03,,  -6.012000000000,   0.08000,
,,,  -6.008000000000,   0.08000,
,,,  -6.004000000000,   0.08000,
,,,  -6.000000000000,   0.08000,
Source,CH2,,  -5.996000000000,   0.08000,
Vertical Units,V,,  -5.992000000000,   0.08000,
Vertical Scale,2.000000e-01,,  -5.988000000000,   0.08000,
Vertical Offset,-4.640000e-01,,  -5.984000000000,   0.08000,
Horizontal Units,s,,  -5.980000000000,   0.08000,
Horizontal Scale,1.000000e+00,,  -5.976000000000,   0.08000,
Pt Fmt,Y,,  -5.972000000000,   0.08000,
Yzero,0.000000e+00,,  -5.968000000000,   0.08000,
Probe Atten,1.000000e+00,,  -5.964000000000,   0.08000,
Model Number,TDS2012C,,  -5.960000000000,   0.08000,
Serial Number,C012957,,  -5.956000000000,   0.08000,
Firmware Version,FV:v24.09,,  -5.952000000000,   0.08000,
,,,-05.948000000000,   0.08000,
,,,-05.944000000000,   0.07200,
,,,-05.940000000000,   0.08000,
,,,-05.936000000000,   0.08000,
,,,-05.932000000000,   0.07200,
,,,-05.928000000000,   0.08000,
,,,-05.924000000000,   0.08000,
,,,-05.920000000000,   0.07200,
,,,-05.916000000000,   0.07200,
,,,-05.912000000000,   0.07200,
,,,-05.908000000000,   0.07200,
,,,-05.904000000000,   0.07200,
,,,-05.900000000000,   0.07200,
,,,-05.896000000000,   0.07200,
,,,-05.892000000000,   0.07200,
,,,-05.888000000000,   0.07200,
,,,-05.884000000000,   0.07200,
,,,-05.880000000000,   0.07200,
,,,-05.876000000000,   0.07200,
,,,-05.872000000000,   0.07200,
,,,-05.868000000000,   0.07200,
,,,-05.864000000000,   0.07200,
,,,-05.860000000000,   0.07200,
,,,-05.856000000000,   0.07200,
,,,-05.852000000000,   0.07200,
,,,-05.848000000000,   0.07200,
,,,-05.844000000000,   0.07200,
,,,-05.840000000000,   0.07200,
,,,-05.836000000000,   0.07200,
,,,-05.832000000000,   0.07200,
,,,-05.828000000000,   0.07200,
,,,-05.824000000000,   0.07200,
,,,-05.820000000000,   0.07200,
,,,-05.816000000000,   0.07200,
,,,-05.812000000000,   0.07200,
,,,-05.808000000000,   0.07200,
,,,-05.804000000000,   0.07200,
,,,-05.800000000000,   0.07200,
,,,-05.796000000000,   0.07200,
,,,-05.792000000000,   0.07200,
,,,-05.788000000000,   0.07200,
,,,-05.784000000000,   0.07200,
,,,-05.780000000000,   0.07200,
,,,-05.776000000000,   0.07200,
,,,-05.772000000000,   0.07200,
,,,-05.768000000000,   0.06400,
,,,-05.764000000000,   0.07200,
,,,-05.760000000000,   0.07200,
,,,-05.756000000000,   0.07200,
,,,-05.752000000000,   0.07200,
,,,-05.748000000000,   0.06400,
,,,-05.744000000000,   0.06400,
,,,-05.740000000000,   0.06400,
,,,-05.736000000000,   0.06400,
,,,-05.732000000000,   0.07200,
,,,-05.728000000000,   0.07200,
,,,-05.724000000000,   0.06400,
,,,-05.720000000000,   0.07200,
,,,-05.716000000000,   0.06400,
,,,-05.712000000000,   0.06400,
,,,-05.708000000000,   0.06400,
,,,-05.704000000000,   0.06400,
,,,-05.700000000000,   0.06400,
,,,-05.696000000000,   0.06400,
,,,-05.692000000000,   0.06400,
,,,-05.688000000000,   0.06400,
,,,-05.684000000000,   0.06400,
,,,-05.680000000000,   0.06400,
,,,-05.676000000000,   0.06400,
,,,-05.672000000000,   0.06400,
,,,-05.668000000000,   0.06400,
,,,-05.664000000000,   0.06400,
,,,-05.660000000000,   0.06400,
,,,-05.656000000000,   0.06400,
,,,-05.652000000000,   0.06400,
,,,-05.648000000000,   0.06400,
,,,-05.644000000000,   0.06400,
,,,-05.640000000000,   0.06400,
,,,-05.636000000000,   0.06400,
,,,-05.632000000000,   0.06400,
,,,-05.628000000000,   0.06400,
,,,-05.624000000000,   0.06400,
,,,-05.620000000000,   0.06400,
,,,-05.616000000000,   0.06400,
,,,-05.612000000000,   0.06400,
,,,-05.608000000000,   0.06400,
,,,-05.604000000000,   0.06400,
,,,-05.600000000000,   0.06400,
,,,-05.596000000000,   0.06400,
,,,-05.592000000000,   0.06400,
,,,-05.588000000000,   0.06400,
,,,-05.584000000000,   0.06400,
,,,-05.580000000000,   0.06400,
,,,-05.576000000000,   0.06400,
,,,-05.572000000000,   0.06400,
,,,-05.568000000000,   0.06400,
,,,-05.564000000000,   0.06400,
,,,-05.560000000000,   0.06400,
,,,-05.556000000000,   0.06400,
,,,-05.552000000000,   0.06400,
,,,-05.548000000000,   0.05600,
,,,-05.544000000000,   0.06400,
,,,-05.540000000000,   0.05600,
,,,-05.536000000000,   0.06400,
,,,-05.532000000000,   0.06400,
,,,-05.528000000000,   0.06400,
,,,-05.524000000000,   0.05600,
,,,-05.520000000000,   0.06400,
,,,-05.516000000000,   0.05600,
,,,-05.512000000000,   0.06400,
,,,-05.508000000000,   0.05600,
,,,-05.504000000000,   0.05600,
,,,-05.500000000000,   0.05600,
,,,-05.496000000000,   0.05600,
,,,-05.492000000000,   0.05600,
,,,-05.488000000000,   0.05600,
,,,-05.484000000000,   0.05600,
,,,-05.480000000000,   0.05600,
,,,-05.476000000000,   0.05600,
,,,-05.472000000000,   0.05600,
,,,-05.468000000000,   0.05600,
,,,-05.464000000000,   0.05600,
,,,-05.460000000000,   0.05600,
,,,-05.456000000000,   0.05600,
,,,-05.452000000000,   0.05600,
,,,-05.448000000000,   0.05600,
,,,-05.444000000000,   0.05600,
,,,-05.440000000000,   0.05600,
,,,-05.436000000000,   0.05600,
,,,-05.432000000000,   0.05600,
,,,-05.428000000000,   0.05600,
,,,-05.424000000000,   0.05600,
,,,-05.420000000000,   0.05600,
,,,-05.416000000000,   0.05600,
,,,-05.412000000000,   0.05600,
,,,-05.408000000000,   0.05600,
,,,-05.404000000000,   0.05600,
,,,-05.400000000000,   0.05600,
,,,-05.396000000000,   0.05600,
,,,-05.392000000000,   0.05600,
,,,-05.388000000000,   0.05600,
,,,-05.384000000000,   0.05600,
,,,-05.380000000000,   0.05600,
,,,-05.376000000000,   0.05600,
,,,-05.372000000000,   0.05600,
,,,-05.368000000000,   0.04800,
,,,-05.364000000000,   0.05600,
,,,-05.360000000000,   0.05600,
,,,-05.356000000000,   0.05600,
,,,-05.352000000000,   0.05600,
,,,-05.348000000000,   0.05600,
,,,-05.344000000000,   0.04800,
,,,-05.340000000000,   0.05600,
,,,-05.336000000000,   0.05600,
,,,-05.332000000000,   0.05600,
,,,-05.328000000000,   0.04800,
,,,-05.324000000000,   0.05600,
,,,-05.320000000000,   0.04800,
,,,-05.316000000000,   0.04800,
,,,-05.312000000000,   0.04800,
,,,-05.308000000000,   0.04800,
,,,-05.304000000000,   0.04800,
,,,-05.300000000000,   0.04800,
,,,-05.296000000000,   0.04800,
,,,-05.292000000000,   0.04800,
,,,-05.288000000000,   0.04800,
,,,-05.284000000000,   0.04800,
,,,-05.280000000000,   0.04800,
,,,-05.276000000000,   0.04800,
,,,-05.272000000000,   0.04800,
,,,-05.268000000000,   0.04800,
,,,-05.264000000000,   0.04800,
,,,-05.260000000000,   0.04800,
,,,-05.256000000000,   0.04800,
,,,-05.252000000000,   0.04800,
,,,-05.248000000000,   0.04800,
,,,-05.244000000000,   0.04800,
,,,-05.240000000000,   0.04800,
,,,-05.236000000000,   0.04800,
,,,-05.232000000000,   0.04800,
,,,-05.228000000000,   0.04800,
,,,-05.224000000000,   0.04800,
,,,-05.220000000000,   0.04800,
,,,-05.216000000000,   0.04800,
,,,-05.212000000000,   0.04800,
,,,-05.208000000000,   0.04800,
,,,-05.204000000000,   0.04800,
,,,-05.200000000000,   0.04800,
,,,-05.196000000000,   0.04800,
,,,-05.192000000000,   0.04800,
,,,-05.188000000000,   0.04800,
,,,-05.184000000000,   0.04800,
,,,-05.180000000000,   0.04800,
,,,-05.176000000000,   0.04800,
,,,-05.172000000000,   0.04800,
,,,-05.168000000000,   0.04800,
,,,-05.164000000000,   0.04800,
,,,-05.160000000000,   0.04800,
,,,-05.156000000000,   0.04000,
,,,-05.152000000000,   0.04800,
,,,-05.148000000000,   0.04800,
,,,-05.144000000000,   0.04800,
,,,-05.140000000000,   0.04800,
,,,-05.136000000000,   0.04800,
,,,-05.132000000000,   0.04800,
,,,-05.128000000000,   0.04800,
,,,-05.124000000000,   0.04800,
,,,-05.120000000000,   0.04800,
,,,-05.116000000000,   0.04800,
,,,-05.112000000000,   0.04000,
,,,-05.108000000000,   0.04000,
,,,-05.104000000000,   0.04000,
,,,-05.100000000000,   0.04800,
,,,-05.096000000000,   0.04000,
,,,-05.092000000000,   0.04000,
,,,-05.088000000000,   0.04000,
,,,-05.084000000000,   0.04000,
,,,-05.080000000000,   0.04000,
,,,-05.076000000000,   0.04000,
,,,-05.072000000000,   0.04000,
,,,-05.068000000000,   0.04000,
,,,-05.064000000000,   0.04000,
,,,-05.060000000000,   0.04000,
,,,-05.056000000000,   0.04000,
,,,-05.052000000000,   0.04000,
,,,-05.048000000000,   0.04000,
,,,-05.044000000000,   0.04000,
,,,-05.040000000000,   0.04000,
,,,-05.036000000000,   0.04000,
,,,-05.032000000000,   0.04000,
,,,-05.028000000000,   0.04000,
,,,-05.024000000000,   0.04000,
,,,-05.020000000000,   0.04000,
,,,-05.016000000000,   0.04000,
,,,-05.012000000000,   0.04000,
,,,-05.008000000000,   0.04000,
,,,-05.004000000000,   0.04000,
,,,-05.000000000000,   0.04000,
,,,-04.996000000000,   0.04000,
,,,-04.992000000000,   0.04000,
,,,-04.988000000000,   0.04000,
,,,-04.984000000000,   0.04000,
,,,-04.980000000000,   0.04000,
,,,-04.976000000000,   0.04000,
,,,-04.972000000000,   0.04000,
,,,-04.968000000000,   0.04000,
,,,-04.964000000000,   0.04000,
,,,-04.960000000000,   0.04000,
,,,-04.956000000000,   0.04000,
,,,-04.952000000000,   0.04000,
,,,-04.948000000000,   0.04000,
,,,-04.944000000000,   0.04000,
,,,-04.940000000000,   0.04000,
,,,-04.936000000000,   0.04000,
,,,-04.932000000000,   0.04000,
,,,-04.928000000000,   0.04000,
,,,-04.924000000000,   0.04000,
,,,-04.920000000000,   0.04000,
,,,-04.916000000000,   0.03200,
,,,-04.912000000000,   0.03200,
,,,-04.908000000000,   0.04000,
,,,-04.904000000000,   0.04000,
,,,-04.900000000000,   0.04000,
,,,-04.896000000000,   0.03200,
,,,-04.892000000000,   0.03200,
,,,-04.888000000000,   0.04000,
,,,-04.884000000000,   0.04000,
,,,-04.880000000000,   0.03200,
,,,-04.876000000000,   0.04000,
,,,-04.872000000000,   0.03200,
,,,-04.868000000000,   0.03200,
,,,-04.864000000000,   0.03200,
,,,-04.860000000000,   0.04000,
,,,-04.856000000000,   0.04000,
,,,-04.852000000000,   0.04000,
,,,-04.848000000000,   0.04000,
,,,-04.844000000000,   0.03200,
,,,-04.840000000000,   0.03200,
,,,-04.836000000000,   0.03200,
,,,-04.832000000000,   0.03200,
,,,-04.828000000000,   0.03200,
,,,-04.824000000000,   0.03200,
,,,-04.820000000000,   0.04000,
,,,-04.816000000000,   0.03200,
,,,-04.812000000000,   0.03200,
,,,-04.808000000000,   0.03200,
,,,-04.804000000000,   0.03200,
,,,-04.800000000000,   0.03200,
,,,-04.796000000000,   0.03200,
,,,-04.792000000000,   0.03200,
,,,-04.788000000000,   0.03200,
,,,-04.784000000000,   0.03200,
,,,-04.780000000000,   0.03200,
,,,-04.776000000000,   0.03200,
,,,-04.772000000000,   0.03200,
,,,-04.768000000000,   0.03200,
,,,-04.764000000000,   0.03200,
,,,-04.760000000000,   0.03200,
,,,-04.756000000000,   0.03200,
,,,-04.752000000000,   0.03200,
,,,-04.748000000000,   0.03200,
,,,-04.744000000000,   0.03200,
,,,-04.740000000000,   0.03200,
,,,-04.736000000000,   0.03200,
,,,-04.732000000000,   0.03200,
,,,-04.728000000000,   0.03200,
,,,-04.724000000000,   0.03200,
,,,-04.720000000000,   0.03200,
,,,-04.716000000000,   0.03200,
,,,-04.712000000000,   0.03200,
,,,-04.708000000000,   0.03200,
,,,-04.704000000000,   0.03200,
,,,-04.700000000000,   0.03200,
,,,-04.696000000000,   0.03200,
,,,-04.692000000000,   0.03200,
,,,-04.688000000000,   0.03200,
,,,-04.684000000000,   0.03200,
,,,-04.680000000000,   0.03200,
,,,-04.676000000000,   0.03200,
,,,-04.672000000000,   0.03200,
,,,-04.668000000000,   0.03200,
,,,-04.664000000000,   0.03200,
,,,-04.660000000000,   0.03200,
,,,-04.656000000000,   0.03200,
,,,-04.652000000000,   0.03200,
,,,-04.648000000000,   0.03200,
,,,-04.644000000000,   0.03200,
,,,-04.640000000000,   0.03200,
,,,-04.636000000000,   0.03200,
,,,-04.632000000000,   0.03200,
,,,-04.628000000000,   0.03200,
,,,-04.624000000000,   0.03200,
,,,-04.620000000000,   0.03200,
,,,-04.616000000000,   0.03200,
,,,-04.612000000000,   0.03200,
,,,-04.608000000000,   0.03200,
,,,-04.604000000000,   0.03200,
,,,-04.600000000000,   0.03200,
,,,-04.596000000000,   0.03200,
,,,-04.592000000000,   0.03200,
,,,-04.588000000000,   0.03200,
,,,-04.584000000000,   0.03200,
,,,-04.580000000000,   0.03200,
,,,-04.576000000000,   0.03200,
,,,-04.572000000000,   0.03200,
,,,-04.568000000000,   0.03200,
,,,-04.564000000000,   0.03200,
,,,-04.560000000000,   0.03200,
,,,-04.556000000000,   0.03200,
,,,-04.552000000000,   0.03200,
,,,-04.548000000000,   0.03200,
,,,-04.544000000000,   0.03200,
,,,-04.540000000000,   0.03200,
,,,-04.536000000000,   0.03200,
,,,-04.532000000000,   0.03200,
,,,-04.528000000000,   0.03200,
,,,-04.524000000000,   0.03200,
,,,-04.520000000000,   0.03200,
,,,-04.516000000000,   0.03200,
,,,-04.512000000000,   0.03200,
,,,-04.508000000000,   0.02400,
,,,-04.504000000000,   0.03200,
,,,-04.500000000000,   0.03200,
,,,-04.496000000000,   0.03200,
,,,-04.492000000000,   0.03200,
,,,-04.488000000000,   0.03200,
,,,-04.484000000000,   0.03200,
,,,-04.480000000000,   0.03200,
,,,-04.476000000000,   0.03200,
,,,-04.472000000000,   0.03200,
,,,-04.468000000000,   0.03200,
,,,-04.464000000000,   0.03200,
,,,-04.460000000000,   0.03200,
,,,-04.456000000000,   0.03200,
,,,-04.452000000000,   0.03200,
,,,-04.448000000000,   0.03200,
,,,-04.444000000000,   0.03200,
,,,-04.440000000000,   0.03200,
,,,-04.436000000000,   0.03200,
,,,-04.432000000000,   0.03200,
,,,-04.428000000000,   0.02400,
,,,-04.424000000000,   0.03200,
,,,-04.420000000000,   0.02400,
,,,-04.416000000000,   0.02400,
,,,-04.412000000000,   0.02400,
,,,-04.408000000000,   0.03200,
,,,-04.404000000000,   0.03200,
,,,-04.400000000000,   0.02400,
,,,-04.396000000000,   0.02400,
,,,-04.392000000000,   0.02400,
,,,-04.388000000000,   0.02400,
,,,-04.384000000000,   0.02400,
,,,-04.380000000000,   0.03200,
,,,-04.376000000000,   0.03200,
,,,-04.372000000000,   0.02400,
,,,-04.368000000000,   0.02400,
,,,-04.364000000000,   0.02400,
,,,-04.360000000000,   0.02400,
,,,-04.356000000000,   0.02400,
,,,-04.352000000000,   0.02400,
,,,-04.348000000000,   0.02400,
,,,-04.344000000000,   0.02400,
,,,-04.340000000000,   0.02400,
,,,-04.336000000000,   0.02400,
,,,-04.332000000000,   0.02400,
,,,-04.328000000000,   0.02400,
,,,-04.324000000000,   0.02400,
,,,-04.320000000000,   0.02400,
,,,-04.316000000000,   0.02400,
,,,-04.312000000000,   0.02400,
,,,-04.308000000000,   0.02400,
,,,-04.304000000000,   0.02400,
,,,-04.300000000000,   0.02400,
,,,-04.296000000000,   0.02400,
,,,-04.292000000000,   0.02400,
,,,-04.288000000000,   0.02400,
,,,-04.284000000000,   0.02400,
,,,-04.280000000000,   0.02400,
,,,-04.276000000000,   0.02400,
,,,-04.272000000000,   0.02400,
,,,-04.268000000000,   0.02400,
,,,-04.264000000000,   0.02400,
,,,-04.260000000000,   0.02400,
,,,-04.256000000000,   0.02400,
,,,-04.252000000000,   0.02400,
,,,-04.248000000000,   0.02400,
,,,-04.244000000000,   0.02400,
,,,-04.240000000000,   0.02400,
,,,-04.236000000000,   0.02400,
,,,-04.232000000000,   0.02400,
,,,-04.228000000000,   0.02400,
,,,-04.224000000000,   0.02400,
,,,-04.220000000000,   0.02400,
,,,-04.216000000000,   0.02400,
,,,-04.212000000000,   0.02400,
,,,-04.208000000000,   0.02400,
,,,-04.204000000000,   0.02400,
,,,-04.200000000000,   0.02400,
,,,-04.196000000000,   0.02400,
,,,-04.192000000000,   0.02400,
,,,-04.188000000000,   0.02400,
,,,-04.184000000000,   0.02400,
,,,-04.180000000000,   0.02400,
,,,-04.176000000000,   0.02400,
,,,-04.172000000000,   0.02400,
,,,-04.168000000000,   0.02400,
,,,-04.164000000000,   0.02400,
,,,-04.160000000000,   0.02400,
,,,-04.156000000000,   0.02400,
,,,-04.152000000000,   0.02400,
,,,-04.148000000000,   0.02400,
,,,-04.144000000000,   0.02400,
,,,-04.140000000000,   0.02400,
,,,-04.136000000000,   0.02400,
,,,-04.132000000000,   0.02400,
,,,-04.128000000000,   0.02400,
,,,-04.124000000000,   0.02400,
,,,-04.120000000000,   0.02400,
,,,-04.116000000000,   0.02400,
,,,-04.112000000000,   0.02400,
,,,-04.108000000000,   0.02400,
,,,-04.104000000000,   0.02400,
,,,-04.100000000000,   0.02400,
,,,-04.096000000000,   0.02400,
,,,-04.092000000000,   0.02400,
,,,-04.088000000000,   0.02400,
,,,-04.084000000000,   0.02400,
,,,-04.080000000000,   0.02400,
,,,-04.076000000000,   0.02400,
,,,-04.072000000000,   0.02400,
,,,-04.068000000000,   0.02400,
,,,-04.064000000000,   0.02400,
,,,-04.060000000000,   0.01600,
,,,-04.056000000000,   0.02400,
,,,-04.052000000000,   0.02400,
,,,-04.048000000000,   0.02400,
,,,-04.044000000000,   0.02400,
,,,-04.040000000000,   0.02400,
,,,-04.036000000000,   0.02400,
,,,-04.032000000000,   0.02400,
,,,-04.028000000000,   0.02400,
,,,-04.024000000000,   0.02400,
,,,-04.020000000000,   0.02400,
,,,-04.016000000000,   0.02400,
,,,-04.012000000000,   0.02400,
,,,-04.008000000000,   0.02400,
,,,-04.004000000000,   0.02400,
,,,-04.000000000000,   0.01600,
,,,-03.996000000000,   0.02400,
,,,-03.992000000000,   0.01600,
,,,-03.988000000000,   0.02400,
,,,-03.984000000000,   0.01600,
,,,-03.980000000000,   0.02400,
,,,-03.976000000000,   0.02400,
,,,-03.972000000000,   0.02400,
,,,-03.968000000000,   0.02400,
,,,-03.964000000000,   0.01600,
,,,-03.960000000000,   0.02400,
,,,-03.956000000000,   0.02400,
,,,-03.952000000000,   0.02400,
,,,-03.948000000000,   0.01600,
,,,-03.944000000000,   0.02400,
,,,-03.940000000000,   0.02400,
,,,-03.936000000000,   0.02400,
,,,-03.932000000000,   0.01600,
,,,-03.928000000000,   0.02400,
,,,-03.924000000000,   0.01600,
,,,-03.920000000000,   0.01600,
,,,-03.916000000000,   0.01600,
,,,-03.912000000000,   0.01600,
,,,-03.908000000000,   0.01600,
,,,-03.904000000000,   0.01600,
,,,-03.900000000000,   0.02400,
,,,-03.896000000000,   0.01600,
,,,-03.892000000000,   0.01600,
,,,-03.888000000000,   0.01600,
,,,-03.884000000000,   0.01600,
,,,-03.880000000000,   0.01600,
,,,-03.876000000000,   0.01600,
,,,-03.872000000000,   0.01600,
,,,-03.868000000000,   0.01600,
,,,-03.864000000000,   0.01600,
,,,-03.860000000000,   0.01600,
,,,-03.856000000000,   0.01600,
,,,-03.852000000000,   0.01600,
,,,-03.848000000000,   0.01600,
,,,-03.844000000000,   0.01600,
,,,-03.840000000000,   0.01600,
,,,-03.836000000000,   0.01600,
,,,-03.832000000000,   0.01600,
,,,-03.828000000000,   0.01600,
,,,-03.824000000000,   0.01600,
,,,-03.820000000000,   0.01600,
,,,-03.816000000000,   0.01600,
,,,-03.812000000000,   0.01600,
,,,-03.808000000000,   0.01600,
,,,-03.804000000000,   0.01600,
,,,-03.800000000000,   0.01600,
,,,-03.796000000000,   0.01600,
,,,-03.792000000000,   0.01600,
,,,-03.788000000000,   0.01600,
,,,-03.784000000000,   0.01600,
,,,-03.780000000000,   0.01600,
,,,-03.776000000000,   0.01600,
,,,-03.772000000000,   0.01600,
,,,-03.768000000000,   0.01600,
,,,-03.764000000000,   0.01600,
,,,-03.760000000000,   0.01600,
,,,-03.756000000000,   0.01600,
,,,-03.752000000000,   0.01600,
,,,-03.748000000000,   0.01600,
,,,-03.744000000000,   0.01600,
,,,-03.740000000000,   0.01600,
,,,-03.736000000000,   0.01600,
,,,-03.732000000000,   0.01600,
,,,-03.728000000000,   0.01600,
,,,-03.724000000000,   0.01600,
,,,-03.720000000000,   0.01600,
,,,-03.716000000000,   0.01600,
,,,-03.712000000000,   0.01600,
,,,-03.708000000000,   0.01600,
,,,-03.704000000000,   0.01600,
,,,-03.700000000000,   0.01600,
,,,-03.696000000000,   0.01600,
,,,-03.692000000000,   0.01600,
,,,-03.688000000000,   0.01600,
,,,-03.684000000000,   0.01600,
,,,-03.680000000000,   0.01600,
,,,-03.676000000000,   0.01600,
,,,-03.672000000000,   0.01600,
,,,-03.668000000000,   0.01600,
,,,-03.664000000000,   0.01600,
,,,-03.660000000000,   0.01600,
,,,-03.656000000000,   0.01600,
,,,-03.652000000000,   0.01600,
,,,-03.648000000000,   0.01600,
,,,-03.644000000000,   0.01600,
,,,-03.640000000000,   0.01600,
,,,-03.636000000000,   0.01600,
,,,-03.632000000000,   0.01600,
,,,-03.628000000000,   0.01600,
,,,-03.624000000000,   0.01600,
,,,-03.620000000000,   0.01600,
,,,-03.616000000000,   0.01600,
,,,-03.612000000000,   0.01600,
,,,-03.608000000000,   0.01600,
,,,-03.604000000000,   0.01600,
,,,-03.600000000000,   0.01600,
,,,-03.596000000000,   0.01600,
,,,-03.592000000000,   0.01600,
,,,-03.588000000000,   0.01600,
,,,-03.584000000000,   0.01600,
,,,-03.580000000000,   0.01600,
,,,-03.576000000000,   0.01600,
,,,-03.572000000000,   0.01600,
,,,-03.568000000000,   0.01600,
